%!PS-Adobe-2.0 EPSF-2.0
%%Title: plot.eps
%%Creator: gnuplot 4.6 patchlevel 6
%%CreationDate: Mon Oct 19 21:13:13 2015
%%DocumentFonts: (atend)
%%BoundingBox: 50 50 770 410
%%EndComments
%%BeginProlog
/gnudict 256 dict def
gnudict begin
%
% The following true/false flags may be edited by hand if desired.
% The unit line width and grayscale image gamma correction may also be changed.
%
/Color true def
/Blacktext false def
/Solid false def
/Dashlength 1 def
/Landscape false def
/Level1 false def
/Rounded false def
/ClipToBoundingBox false def
/SuppressPDFMark false def
/TransparentPatterns false def
/gnulinewidth 5.000 def
/userlinewidth gnulinewidth def
/Gamma 1.0 def
/BackgroundColor {-1.000 -1.000 -1.000} def
%
/vshift -46 def
/dl1 {
  10.0 Dashlength mul mul
  Rounded { currentlinewidth 0.75 mul sub dup 0 le { pop 0.01 } if } if
} def
/dl2 {
  10.0 Dashlength mul mul
  Rounded { currentlinewidth 0.75 mul add } if
} def
/hpt_ 31.5 def
/vpt_ 31.5 def
/hpt hpt_ def
/vpt vpt_ def
/doclip {
  ClipToBoundingBox {
    newpath 50 50 moveto 770 50 lineto 770 410 lineto 50 410 lineto closepath
    clip
  } if
} def
%
% Gnuplot Prolog Version 4.6 (September 2012)
%
%/SuppressPDFMark true def
%
/M {moveto} bind def
/L {lineto} bind def
/R {rmoveto} bind def
/V {rlineto} bind def
/N {newpath moveto} bind def
/Z {closepath} bind def
/C {setrgbcolor} bind def
/f {rlineto fill} bind def
/g {setgray} bind def
/Gshow {show} def   % May be redefined later in the file to support UTF-8
/vpt2 vpt 2 mul def
/hpt2 hpt 2 mul def
/Lshow {currentpoint stroke M 0 vshift R 
	Blacktext {gsave 0 setgray show grestore} {show} ifelse} def
/Rshow {currentpoint stroke M dup stringwidth pop neg vshift R
	Blacktext {gsave 0 setgray show grestore} {show} ifelse} def
/Cshow {currentpoint stroke M dup stringwidth pop -2 div vshift R 
	Blacktext {gsave 0 setgray show grestore} {show} ifelse} def
/UP {dup vpt_ mul /vpt exch def hpt_ mul /hpt exch def
  /hpt2 hpt 2 mul def /vpt2 vpt 2 mul def} def
/DL {Color {setrgbcolor Solid {pop []} if 0 setdash}
 {pop pop pop 0 setgray Solid {pop []} if 0 setdash} ifelse} def
/BL {stroke userlinewidth 2 mul setlinewidth
	Rounded {1 setlinejoin 1 setlinecap} if} def
/AL {stroke userlinewidth 2 div setlinewidth
	Rounded {1 setlinejoin 1 setlinecap} if} def
/UL {dup gnulinewidth mul /userlinewidth exch def
	dup 1 lt {pop 1} if 10 mul /udl exch def} def
/PL {stroke userlinewidth setlinewidth
	Rounded {1 setlinejoin 1 setlinecap} if} def
3.8 setmiterlimit
% Default Line colors
/LCw {1 1 1} def
/LCb {0 0 0} def
/LCa {0 0 0} def
/LC0 {1 0 0} def
/LC1 {0 1 0} def
/LC2 {0 0 1} def
/LC3 {1 0 1} def
/LC4 {0 1 1} def
/LC5 {1 1 0} def
/LC6 {0 0 0} def
/LC7 {1 0.3 0} def
/LC8 {0.5 0.5 0.5} def
% Default Line Types
/LTw {PL [] 1 setgray} def
/LTb {BL [] LCb DL} def
/LTa {AL [1 udl mul 2 udl mul] 0 setdash LCa setrgbcolor} def
/LT0 {PL [] LC0 DL} def
/LT1 {PL [4 dl1 2 dl2] LC1 DL} def
/LT2 {PL [2 dl1 3 dl2] LC2 DL} def
/LT3 {PL [1 dl1 1.5 dl2] LC3 DL} def
/LT4 {PL [6 dl1 2 dl2 1 dl1 2 dl2] LC4 DL} def
/LT5 {PL [3 dl1 3 dl2 1 dl1 3 dl2] LC5 DL} def
/LT6 {PL [2 dl1 2 dl2 2 dl1 6 dl2] LC6 DL} def
/LT7 {PL [1 dl1 2 dl2 6 dl1 2 dl2 1 dl1 2 dl2] LC7 DL} def
/LT8 {PL [2 dl1 2 dl2 2 dl1 2 dl2 2 dl1 2 dl2 2 dl1 4 dl2] LC8 DL} def
/Pnt {stroke [] 0 setdash gsave 1 setlinecap M 0 0 V stroke grestore} def
/Dia {stroke [] 0 setdash 2 copy vpt add M
  hpt neg vpt neg V hpt vpt neg V
  hpt vpt V hpt neg vpt V closepath stroke
  Pnt} def
/Pls {stroke [] 0 setdash vpt sub M 0 vpt2 V
  currentpoint stroke M
  hpt neg vpt neg R hpt2 0 V stroke
 } def
/Box {stroke [] 0 setdash 2 copy exch hpt sub exch vpt add M
  0 vpt2 neg V hpt2 0 V 0 vpt2 V
  hpt2 neg 0 V closepath stroke
  Pnt} def
/Crs {stroke [] 0 setdash exch hpt sub exch vpt add M
  hpt2 vpt2 neg V currentpoint stroke M
  hpt2 neg 0 R hpt2 vpt2 V stroke} def
/TriU {stroke [] 0 setdash 2 copy vpt 1.12 mul add M
  hpt neg vpt -1.62 mul V
  hpt 2 mul 0 V
  hpt neg vpt 1.62 mul V closepath stroke
  Pnt} def
/Star {2 copy Pls Crs} def
/BoxF {stroke [] 0 setdash exch hpt sub exch vpt add M
  0 vpt2 neg V hpt2 0 V 0 vpt2 V
  hpt2 neg 0 V closepath fill} def
/TriUF {stroke [] 0 setdash vpt 1.12 mul add M
  hpt neg vpt -1.62 mul V
  hpt 2 mul 0 V
  hpt neg vpt 1.62 mul V closepath fill} def
/TriD {stroke [] 0 setdash 2 copy vpt 1.12 mul sub M
  hpt neg vpt 1.62 mul V
  hpt 2 mul 0 V
  hpt neg vpt -1.62 mul V closepath stroke
  Pnt} def
/TriDF {stroke [] 0 setdash vpt 1.12 mul sub M
  hpt neg vpt 1.62 mul V
  hpt 2 mul 0 V
  hpt neg vpt -1.62 mul V closepath fill} def
/DiaF {stroke [] 0 setdash vpt add M
  hpt neg vpt neg V hpt vpt neg V
  hpt vpt V hpt neg vpt V closepath fill} def
/Pent {stroke [] 0 setdash 2 copy gsave
  translate 0 hpt M 4 {72 rotate 0 hpt L} repeat
  closepath stroke grestore Pnt} def
/PentF {stroke [] 0 setdash gsave
  translate 0 hpt M 4 {72 rotate 0 hpt L} repeat
  closepath fill grestore} def
/Circle {stroke [] 0 setdash 2 copy
  hpt 0 360 arc stroke Pnt} def
/CircleF {stroke [] 0 setdash hpt 0 360 arc fill} def
/C0 {BL [] 0 setdash 2 copy moveto vpt 90 450 arc} bind def
/C1 {BL [] 0 setdash 2 copy moveto
	2 copy vpt 0 90 arc closepath fill
	vpt 0 360 arc closepath} bind def
/C2 {BL [] 0 setdash 2 copy moveto
	2 copy vpt 90 180 arc closepath fill
	vpt 0 360 arc closepath} bind def
/C3 {BL [] 0 setdash 2 copy moveto
	2 copy vpt 0 180 arc closepath fill
	vpt 0 360 arc closepath} bind def
/C4 {BL [] 0 setdash 2 copy moveto
	2 copy vpt 180 270 arc closepath fill
	vpt 0 360 arc closepath} bind def
/C5 {BL [] 0 setdash 2 copy moveto
	2 copy vpt 0 90 arc
	2 copy moveto
	2 copy vpt 180 270 arc closepath fill
	vpt 0 360 arc} bind def
/C6 {BL [] 0 setdash 2 copy moveto
	2 copy vpt 90 270 arc closepath fill
	vpt 0 360 arc closepath} bind def
/C7 {BL [] 0 setdash 2 copy moveto
	2 copy vpt 0 270 arc closepath fill
	vpt 0 360 arc closepath} bind def
/C8 {BL [] 0 setdash 2 copy moveto
	2 copy vpt 270 360 arc closepath fill
	vpt 0 360 arc closepath} bind def
/C9 {BL [] 0 setdash 2 copy moveto
	2 copy vpt 270 450 arc closepath fill
	vpt 0 360 arc closepath} bind def
/C10 {BL [] 0 setdash 2 copy 2 copy moveto vpt 270 360 arc closepath fill
	2 copy moveto
	2 copy vpt 90 180 arc closepath fill
	vpt 0 360 arc closepath} bind def
/C11 {BL [] 0 setdash 2 copy moveto
	2 copy vpt 0 180 arc closepath fill
	2 copy moveto
	2 copy vpt 270 360 arc closepath fill
	vpt 0 360 arc closepath} bind def
/C12 {BL [] 0 setdash 2 copy moveto
	2 copy vpt 180 360 arc closepath fill
	vpt 0 360 arc closepath} bind def
/C13 {BL [] 0 setdash 2 copy moveto
	2 copy vpt 0 90 arc closepath fill
	2 copy moveto
	2 copy vpt 180 360 arc closepath fill
	vpt 0 360 arc closepath} bind def
/C14 {BL [] 0 setdash 2 copy moveto
	2 copy vpt 90 360 arc closepath fill
	vpt 0 360 arc} bind def
/C15 {BL [] 0 setdash 2 copy vpt 0 360 arc closepath fill
	vpt 0 360 arc closepath} bind def
/Rec {newpath 4 2 roll moveto 1 index 0 rlineto 0 exch rlineto
	neg 0 rlineto closepath} bind def
/Square {dup Rec} bind def
/Bsquare {vpt sub exch vpt sub exch vpt2 Square} bind def
/S0 {BL [] 0 setdash 2 copy moveto 0 vpt rlineto BL Bsquare} bind def
/S1 {BL [] 0 setdash 2 copy vpt Square fill Bsquare} bind def
/S2 {BL [] 0 setdash 2 copy exch vpt sub exch vpt Square fill Bsquare} bind def
/S3 {BL [] 0 setdash 2 copy exch vpt sub exch vpt2 vpt Rec fill Bsquare} bind def
/S4 {BL [] 0 setdash 2 copy exch vpt sub exch vpt sub vpt Square fill Bsquare} bind def
/S5 {BL [] 0 setdash 2 copy 2 copy vpt Square fill
	exch vpt sub exch vpt sub vpt Square fill Bsquare} bind def
/S6 {BL [] 0 setdash 2 copy exch vpt sub exch vpt sub vpt vpt2 Rec fill Bsquare} bind def
/S7 {BL [] 0 setdash 2 copy exch vpt sub exch vpt sub vpt vpt2 Rec fill
	2 copy vpt Square fill Bsquare} bind def
/S8 {BL [] 0 setdash 2 copy vpt sub vpt Square fill Bsquare} bind def
/S9 {BL [] 0 setdash 2 copy vpt sub vpt vpt2 Rec fill Bsquare} bind def
/S10 {BL [] 0 setdash 2 copy vpt sub vpt Square fill 2 copy exch vpt sub exch vpt Square fill
	Bsquare} bind def
/S11 {BL [] 0 setdash 2 copy vpt sub vpt Square fill 2 copy exch vpt sub exch vpt2 vpt Rec fill
	Bsquare} bind def
/S12 {BL [] 0 setdash 2 copy exch vpt sub exch vpt sub vpt2 vpt Rec fill Bsquare} bind def
/S13 {BL [] 0 setdash 2 copy exch vpt sub exch vpt sub vpt2 vpt Rec fill
	2 copy vpt Square fill Bsquare} bind def
/S14 {BL [] 0 setdash 2 copy exch vpt sub exch vpt sub vpt2 vpt Rec fill
	2 copy exch vpt sub exch vpt Square fill Bsquare} bind def
/S15 {BL [] 0 setdash 2 copy Bsquare fill Bsquare} bind def
/D0 {gsave translate 45 rotate 0 0 S0 stroke grestore} bind def
/D1 {gsave translate 45 rotate 0 0 S1 stroke grestore} bind def
/D2 {gsave translate 45 rotate 0 0 S2 stroke grestore} bind def
/D3 {gsave translate 45 rotate 0 0 S3 stroke grestore} bind def
/D4 {gsave translate 45 rotate 0 0 S4 stroke grestore} bind def
/D5 {gsave translate 45 rotate 0 0 S5 stroke grestore} bind def
/D6 {gsave translate 45 rotate 0 0 S6 stroke grestore} bind def
/D7 {gsave translate 45 rotate 0 0 S7 stroke grestore} bind def
/D8 {gsave translate 45 rotate 0 0 S8 stroke grestore} bind def
/D9 {gsave translate 45 rotate 0 0 S9 stroke grestore} bind def
/D10 {gsave translate 45 rotate 0 0 S10 stroke grestore} bind def
/D11 {gsave translate 45 rotate 0 0 S11 stroke grestore} bind def
/D12 {gsave translate 45 rotate 0 0 S12 stroke grestore} bind def
/D13 {gsave translate 45 rotate 0 0 S13 stroke grestore} bind def
/D14 {gsave translate 45 rotate 0 0 S14 stroke grestore} bind def
/D15 {gsave translate 45 rotate 0 0 S15 stroke grestore} bind def
/DiaE {stroke [] 0 setdash vpt add M
  hpt neg vpt neg V hpt vpt neg V
  hpt vpt V hpt neg vpt V closepath stroke} def
/BoxE {stroke [] 0 setdash exch hpt sub exch vpt add M
  0 vpt2 neg V hpt2 0 V 0 vpt2 V
  hpt2 neg 0 V closepath stroke} def
/TriUE {stroke [] 0 setdash vpt 1.12 mul add M
  hpt neg vpt -1.62 mul V
  hpt 2 mul 0 V
  hpt neg vpt 1.62 mul V closepath stroke} def
/TriDE {stroke [] 0 setdash vpt 1.12 mul sub M
  hpt neg vpt 1.62 mul V
  hpt 2 mul 0 V
  hpt neg vpt -1.62 mul V closepath stroke} def
/PentE {stroke [] 0 setdash gsave
  translate 0 hpt M 4 {72 rotate 0 hpt L} repeat
  closepath stroke grestore} def
/CircE {stroke [] 0 setdash 
  hpt 0 360 arc stroke} def
/Opaque {gsave closepath 1 setgray fill grestore 0 setgray closepath} def
/DiaW {stroke [] 0 setdash vpt add M
  hpt neg vpt neg V hpt vpt neg V
  hpt vpt V hpt neg vpt V Opaque stroke} def
/BoxW {stroke [] 0 setdash exch hpt sub exch vpt add M
  0 vpt2 neg V hpt2 0 V 0 vpt2 V
  hpt2 neg 0 V Opaque stroke} def
/TriUW {stroke [] 0 setdash vpt 1.12 mul add M
  hpt neg vpt -1.62 mul V
  hpt 2 mul 0 V
  hpt neg vpt 1.62 mul V Opaque stroke} def
/TriDW {stroke [] 0 setdash vpt 1.12 mul sub M
  hpt neg vpt 1.62 mul V
  hpt 2 mul 0 V
  hpt neg vpt -1.62 mul V Opaque stroke} def
/PentW {stroke [] 0 setdash gsave
  translate 0 hpt M 4 {72 rotate 0 hpt L} repeat
  Opaque stroke grestore} def
/CircW {stroke [] 0 setdash 
  hpt 0 360 arc Opaque stroke} def
/BoxFill {gsave Rec 1 setgray fill grestore} def
/Density {
  /Fillden exch def
  currentrgbcolor
  /ColB exch def /ColG exch def /ColR exch def
  /ColR ColR Fillden mul Fillden sub 1 add def
  /ColG ColG Fillden mul Fillden sub 1 add def
  /ColB ColB Fillden mul Fillden sub 1 add def
  ColR ColG ColB setrgbcolor} def
/BoxColFill {gsave Rec PolyFill} def
/PolyFill {gsave Density fill grestore grestore} def
/h {rlineto rlineto rlineto gsave closepath fill grestore} bind def
%
% PostScript Level 1 Pattern Fill routine for rectangles
% Usage: x y w h s a XX PatternFill
%	x,y = lower left corner of box to be filled
%	w,h = width and height of box
%	  a = angle in degrees between lines and x-axis
%	 XX = 0/1 for no/yes cross-hatch
%
/PatternFill {gsave /PFa [ 9 2 roll ] def
  PFa 0 get PFa 2 get 2 div add PFa 1 get PFa 3 get 2 div add translate
  PFa 2 get -2 div PFa 3 get -2 div PFa 2 get PFa 3 get Rec
  TransparentPatterns {} {gsave 1 setgray fill grestore} ifelse
  clip
  currentlinewidth 0.5 mul setlinewidth
  /PFs PFa 2 get dup mul PFa 3 get dup mul add sqrt def
  0 0 M PFa 5 get rotate PFs -2 div dup translate
  0 1 PFs PFa 4 get div 1 add floor cvi
	{PFa 4 get mul 0 M 0 PFs V} for
  0 PFa 6 get ne {
	0 1 PFs PFa 4 get div 1 add floor cvi
	{PFa 4 get mul 0 2 1 roll M PFs 0 V} for
 } if
  stroke grestore} def
%
/languagelevel where
 {pop languagelevel} {1} ifelse
 2 lt
	{/InterpretLevel1 true def}
	{/InterpretLevel1 Level1 def}
 ifelse
%
% PostScript level 2 pattern fill definitions
%
/Level2PatternFill {
/Tile8x8 {/PaintType 2 /PatternType 1 /TilingType 1 /BBox [0 0 8 8] /XStep 8 /YStep 8}
	bind def
/KeepColor {currentrgbcolor [/Pattern /DeviceRGB] setcolorspace} bind def
<< Tile8x8
 /PaintProc {0.5 setlinewidth pop 0 0 M 8 8 L 0 8 M 8 0 L stroke} 
>> matrix makepattern
/Pat1 exch def
<< Tile8x8
 /PaintProc {0.5 setlinewidth pop 0 0 M 8 8 L 0 8 M 8 0 L stroke
	0 4 M 4 8 L 8 4 L 4 0 L 0 4 L stroke}
>> matrix makepattern
/Pat2 exch def
<< Tile8x8
 /PaintProc {0.5 setlinewidth pop 0 0 M 0 8 L
	8 8 L 8 0 L 0 0 L fill}
>> matrix makepattern
/Pat3 exch def
<< Tile8x8
 /PaintProc {0.5 setlinewidth pop -4 8 M 8 -4 L
	0 12 M 12 0 L stroke}
>> matrix makepattern
/Pat4 exch def
<< Tile8x8
 /PaintProc {0.5 setlinewidth pop -4 0 M 8 12 L
	0 -4 M 12 8 L stroke}
>> matrix makepattern
/Pat5 exch def
<< Tile8x8
 /PaintProc {0.5 setlinewidth pop -2 8 M 4 -4 L
	0 12 M 8 -4 L 4 12 M 10 0 L stroke}
>> matrix makepattern
/Pat6 exch def
<< Tile8x8
 /PaintProc {0.5 setlinewidth pop -2 0 M 4 12 L
	0 -4 M 8 12 L 4 -4 M 10 8 L stroke}
>> matrix makepattern
/Pat7 exch def
<< Tile8x8
 /PaintProc {0.5 setlinewidth pop 8 -2 M -4 4 L
	12 0 M -4 8 L 12 4 M 0 10 L stroke}
>> matrix makepattern
/Pat8 exch def
<< Tile8x8
 /PaintProc {0.5 setlinewidth pop 0 -2 M 12 4 L
	-4 0 M 12 8 L -4 4 M 8 10 L stroke}
>> matrix makepattern
/Pat9 exch def
/Pattern1 {PatternBgnd KeepColor Pat1 setpattern} bind def
/Pattern2 {PatternBgnd KeepColor Pat2 setpattern} bind def
/Pattern3 {PatternBgnd KeepColor Pat3 setpattern} bind def
/Pattern4 {PatternBgnd KeepColor Landscape {Pat5} {Pat4} ifelse setpattern} bind def
/Pattern5 {PatternBgnd KeepColor Landscape {Pat4} {Pat5} ifelse setpattern} bind def
/Pattern6 {PatternBgnd KeepColor Landscape {Pat9} {Pat6} ifelse setpattern} bind def
/Pattern7 {PatternBgnd KeepColor Landscape {Pat8} {Pat7} ifelse setpattern} bind def
} def
%
%
%End of PostScript Level 2 code
%
/PatternBgnd {
  TransparentPatterns {} {gsave 1 setgray fill grestore} ifelse
} def
%
% Substitute for Level 2 pattern fill codes with
% grayscale if Level 2 support is not selected.
%
/Level1PatternFill {
/Pattern1 {0.250 Density} bind def
/Pattern2 {0.500 Density} bind def
/Pattern3 {0.750 Density} bind def
/Pattern4 {0.125 Density} bind def
/Pattern5 {0.375 Density} bind def
/Pattern6 {0.625 Density} bind def
/Pattern7 {0.875 Density} bind def
} def
%
% Now test for support of Level 2 code
%
Level1 {Level1PatternFill} {Level2PatternFill} ifelse
%
/Symbol-Oblique /Symbol findfont [1 0 .167 1 0 0] makefont
dup length dict begin {1 index /FID eq {pop pop} {def} ifelse} forall
currentdict end definefont pop
/MFshow {
   { dup 5 get 3 ge
     { 5 get 3 eq {gsave} {grestore} ifelse }
     {dup dup 0 get findfont exch 1 get scalefont setfont
     [ currentpoint ] exch dup 2 get 0 exch R dup 5 get 2 ne {dup dup 6
     get exch 4 get {Gshow} {stringwidth pop 0 R} ifelse }if dup 5 get 0 eq
     {dup 3 get {2 get neg 0 exch R pop} {pop aload pop M} ifelse} {dup 5
     get 1 eq {dup 2 get exch dup 3 get exch 6 get stringwidth pop -2 div
     dup 0 R} {dup 6 get stringwidth pop -2 div 0 R 6 get
     show 2 index {aload pop M neg 3 -1 roll neg R pop pop} {pop pop pop
     pop aload pop M} ifelse }ifelse }ifelse }
     ifelse }
   forall} def
/Gswidth {dup type /stringtype eq {stringwidth} {pop (n) stringwidth} ifelse} def
/MFwidth {0 exch { dup 5 get 3 ge { 5 get 3 eq { 0 } { pop } ifelse }
 {dup 3 get{dup dup 0 get findfont exch 1 get scalefont setfont
     6 get Gswidth pop add} {pop} ifelse} ifelse} forall} def
/MLshow { currentpoint stroke M
  0 exch R
  Blacktext {gsave 0 setgray MFshow grestore} {MFshow} ifelse } bind def
/MRshow { currentpoint stroke M
  exch dup MFwidth neg 3 -1 roll R
  Blacktext {gsave 0 setgray MFshow grestore} {MFshow} ifelse } bind def
/MCshow { currentpoint stroke M
  exch dup MFwidth -2 div 3 -1 roll R
  Blacktext {gsave 0 setgray MFshow grestore} {MFshow} ifelse } bind def
/XYsave    { [( ) 1 2 true false 3 ()] } bind def
/XYrestore { [( ) 1 2 true false 4 ()] } bind def
Level1 SuppressPDFMark or 
{} {
/SDict 10 dict def
systemdict /pdfmark known not {
  userdict /pdfmark systemdict /cleartomark get put
} if
SDict begin [
  /Title (plot.eps)
  /Subject (gnuplot plot)
  /Creator (gnuplot 4.6 patchlevel 6)
  /Author (sam)
%  /Producer (gnuplot)
%  /Keywords ()
  /CreationDate (Mon Oct 19 21:13:13 2015)
  /DOCINFO pdfmark
end
} ifelse
end
%%EndProlog
%%Page: 1 1
gnudict begin
gsave
doclip
50 50 translate
0.050 0.050 scale
0 setgray
newpath
(Helvetica) findfont 140 scalefont setfont
BackgroundColor 0 lt 3 1 roll 0 lt exch 0 lt or or not {BackgroundColor C 1.000 0 0 14400.00 7200.00 BoxColFill} if
/Helvetica findfont 140 scalefont setfont
/vshift -46 def
1.000 UL
LTb
LCb setrgbcolor
686 448 M
63 0 V
6198 0 R
-63 0 V
stroke
602 448 M
[ [(Helvetica) 140.0 0.0 true true 0 ( 3)]
] -46.7 MRshow
1.000 UL
LTb
LCb setrgbcolor
686 1081 M
63 0 V
6198 0 R
-63 0 V
stroke
602 1081 M
[ [(Helvetica) 140.0 0.0 true true 0 ( 3.1)]
] -46.7 MRshow
1.000 UL
LTb
LCb setrgbcolor
686 1714 M
63 0 V
6198 0 R
-63 0 V
stroke
602 1714 M
[ [(Helvetica) 140.0 0.0 true true 0 ( 3.2)]
] -46.7 MRshow
1.000 UL
LTb
LCb setrgbcolor
686 2347 M
63 0 V
6198 0 R
-63 0 V
stroke
602 2347 M
[ [(Helvetica) 140.0 0.0 true true 0 ( 3.3)]
] -46.7 MRshow
1.000 UL
LTb
LCb setrgbcolor
686 2980 M
63 0 V
6198 0 R
-63 0 V
stroke
602 2980 M
[ [(Helvetica) 140.0 0.0 true true 0 ( 3.4)]
] -46.7 MRshow
1.000 UL
LTb
LCb setrgbcolor
686 3614 M
63 0 V
6198 0 R
-63 0 V
stroke
602 3614 M
[ [(Helvetica) 140.0 0.0 true true 0 ( 3.5)]
] -46.7 MRshow
1.000 UL
LTb
LCb setrgbcolor
686 4247 M
63 0 V
6198 0 R
-63 0 V
stroke
602 4247 M
[ [(Helvetica) 140.0 0.0 true true 0 ( 3.6)]
] -46.7 MRshow
1.000 UL
LTb
LCb setrgbcolor
686 4880 M
63 0 V
6198 0 R
-63 0 V
stroke
602 4880 M
[ [(Helvetica) 140.0 0.0 true true 0 ( 3.7)]
] -46.7 MRshow
1.000 UL
LTb
LCb setrgbcolor
686 5513 M
63 0 V
6198 0 R
-63 0 V
stroke
602 5513 M
[ [(Helvetica) 140.0 0.0 true true 0 ( 3.8)]
] -46.7 MRshow
1.000 UL
LTb
LCb setrgbcolor
686 6146 M
63 0 V
6198 0 R
-63 0 V
stroke
602 6146 M
[ [(Helvetica) 140.0 0.0 true true 0 ( 3.9)]
] -46.7 MRshow
1.000 UL
LTb
LCb setrgbcolor
686 6779 M
63 0 V
6198 0 R
-63 0 V
stroke
602 6779 M
[ [(Helvetica) 140.0 0.0 true true 0 ( 4)]
] -46.7 MRshow
1.000 UL
LTb
LCb setrgbcolor
686 448 M
0 63 V
0 6268 R
0 -63 V
stroke
686 308 M
[ [(Helvetica) 140.0 0.0 true true 0 ( 0)]
] -46.7 MCshow
1.000 UL
LTb
LCb setrgbcolor
1312 448 M
0 63 V
0 6268 R
0 -63 V
stroke
1312 308 M
[ [(Helvetica) 140.0 0.0 true true 0 ( 5000)]
] -46.7 MCshow
1.000 UL
LTb
LCb setrgbcolor
1938 448 M
0 63 V
0 6268 R
0 -63 V
stroke
1938 308 M
[ [(Helvetica) 140.0 0.0 true true 0 ( 10000)]
] -46.7 MCshow
1.000 UL
LTb
LCb setrgbcolor
2564 448 M
0 63 V
0 6268 R
0 -63 V
stroke
2564 308 M
[ [(Helvetica) 140.0 0.0 true true 0 ( 15000)]
] -46.7 MCshow
1.000 UL
LTb
LCb setrgbcolor
3190 448 M
0 63 V
0 6268 R
0 -63 V
stroke
3190 308 M
[ [(Helvetica) 140.0 0.0 true true 0 ( 20000)]
] -46.7 MCshow
1.000 UL
LTb
LCb setrgbcolor
3817 448 M
0 63 V
0 6268 R
0 -63 V
stroke
3817 308 M
[ [(Helvetica) 140.0 0.0 true true 0 ( 25000)]
] -46.7 MCshow
1.000 UL
LTb
LCb setrgbcolor
4443 448 M
0 63 V
0 6268 R
0 -63 V
stroke
4443 308 M
[ [(Helvetica) 140.0 0.0 true true 0 ( 30000)]
] -46.7 MCshow
1.000 UL
LTb
LCb setrgbcolor
5069 448 M
0 63 V
0 6268 R
0 -63 V
stroke
5069 308 M
[ [(Helvetica) 140.0 0.0 true true 0 ( 35000)]
] -46.7 MCshow
1.000 UL
LTb
LCb setrgbcolor
5695 448 M
0 63 V
0 6268 R
0 -63 V
stroke
5695 308 M
[ [(Helvetica) 140.0 0.0 true true 0 ( 40000)]
] -46.7 MCshow
1.000 UL
LTb
LCb setrgbcolor
6321 448 M
0 63 V
0 6268 R
0 -63 V
stroke
6321 308 M
[ [(Helvetica) 140.0 0.0 true true 0 ( 45000)]
] -46.7 MCshow
1.000 UL
LTb
LCb setrgbcolor
6947 448 M
0 63 V
0 6268 R
0 -63 V
stroke
6947 308 M
[ [(Helvetica) 140.0 0.0 true true 0 ( 50000)]
] -46.7 MCshow
1.000 UL
LTb
LCb setrgbcolor
1.000 UL
LTb
LCb setrgbcolor
686 6779 N
686 448 L
6261 0 V
0 6331 V
-6261 0 V
Z stroke
LCb setrgbcolor
112 3613 M
currentpoint gsave translate -270 rotate 0 0 moveto
[ [(Helvetica) 140.0 0.0 true true 0 (Pi estimation)]
] -46.7 MCshow
grestore
LTb
LCb setrgbcolor
3816 98 M
[ [(Helvetica) 140.0 0.0 true true 0 (Iterations)]
] -46.7 MCshow
LTb
3816 6989 M
[ [(Helvetica) 140.0 0.0 true true 0 (pi estimate)]
] -46.7 MCshow
1.000 UP
1.000 UL
LTb
LCb setrgbcolor
% Begin plot #1
1.000 UP
1.000 UL
LT0
LC0 setrgbcolor
/Helvetica findfont 140 scalefont setfont
LCb setrgbcolor
6296 6646 M
("out_normal.dat") Rshow
LT0
6380 6646 M
399 0 V
686 6779 M
749 1168 L
811 859 L
63 217 V
63 198 V
62 68 V
63 -73 V
62 20 V
63 -86 V
63 107 V
62 25 V
63 7 V
62 -32 V
63 27 V
63 -27 V
62 -24 V
63 -2 V
62 11 V
63 -5 V
63 -20 V
62 29 V
63 6 V
63 25 V
62 -12 V
63 32 V
62 14 V
63 -10 V
63 -18 V
62 11 V
63 -20 V
62 -14 V
63 18 V
63 7 V
62 5 V
63 8 V
62 2 V
63 -16 V
63 15 V
62 -9 V
63 -6 V
63 -15 V
62 -15 V
63 -19 V
62 -2 V
63 -16 V
63 -11 V
62 0 V
63 8 V
62 3 V
63 -19 V
63 6 V
62 2 V
63 6 V
62 8 V
63 -13 V
63 11 V
62 20 V
63 -13 V
63 -1 V
62 7 V
63 0 V
62 2 V
63 -5 V
63 -3 V
62 -4 V
63 2 V
62 -3 V
63 -2 V
63 2 V
62 -6 V
63 6 V
62 -11 V
63 11 V
63 2 V
62 5 V
63 -2 V
62 5 V
63 -15 V
63 10 V
62 5 V
63 -4 V
63 0 V
62 7 V
63 2 V
62 -4 V
63 -2 V
63 -5 V
62 6 V
63 0 V
62 5 V
63 -7 V
63 3 V
62 4 V
63 -2 V
62 3 V
63 -2 V
63 -8 V
62 3 V
63 -4 V
63 1 V
686 6779 Pls
749 1168 Pls
811 859 Pls
874 1076 Pls
937 1274 Pls
999 1342 Pls
1062 1269 Pls
1124 1289 Pls
1187 1203 Pls
1250 1310 Pls
1312 1335 Pls
1375 1342 Pls
1437 1310 Pls
1500 1337 Pls
1563 1310 Pls
1625 1286 Pls
1688 1284 Pls
1750 1295 Pls
1813 1290 Pls
1876 1270 Pls
1938 1299 Pls
2001 1305 Pls
2064 1330 Pls
2126 1318 Pls
2189 1350 Pls
2251 1364 Pls
2314 1354 Pls
2377 1336 Pls
2439 1347 Pls
2502 1327 Pls
2564 1313 Pls
2627 1331 Pls
2690 1338 Pls
2752 1343 Pls
2815 1351 Pls
2877 1353 Pls
2940 1337 Pls
3003 1352 Pls
3065 1343 Pls
3128 1337 Pls
3191 1322 Pls
3253 1307 Pls
3316 1288 Pls
3378 1286 Pls
3441 1270 Pls
3504 1259 Pls
3566 1259 Pls
3629 1267 Pls
3691 1270 Pls
3754 1251 Pls
3817 1257 Pls
3879 1259 Pls
3942 1265 Pls
4004 1273 Pls
4067 1260 Pls
4130 1271 Pls
4192 1291 Pls
4255 1278 Pls
4318 1277 Pls
4380 1284 Pls
4443 1284 Pls
4505 1286 Pls
4568 1281 Pls
4631 1278 Pls
4693 1274 Pls
4756 1276 Pls
4818 1273 Pls
4881 1271 Pls
4944 1273 Pls
5006 1267 Pls
5069 1273 Pls
5131 1262 Pls
5194 1273 Pls
5257 1275 Pls
5319 1280 Pls
5382 1278 Pls
5444 1283 Pls
5507 1268 Pls
5570 1278 Pls
5632 1283 Pls
5695 1279 Pls
5758 1279 Pls
5820 1286 Pls
5883 1288 Pls
5945 1284 Pls
6008 1282 Pls
6071 1277 Pls
6133 1283 Pls
6196 1283 Pls
6258 1288 Pls
6321 1281 Pls
6384 1284 Pls
6446 1288 Pls
6509 1286 Pls
6571 1289 Pls
6634 1287 Pls
6697 1279 Pls
6759 1282 Pls
6822 1278 Pls
6885 1279 Pls
6579 6646 Pls
% End plot #1
1.000 UL
LTb
LCb setrgbcolor
686 6779 N
686 448 L
6261 0 V
0 6331 V
-6261 0 V
Z stroke
1.000 UP
1.000 UL
LTb
LCb setrgbcolor
/Helvetica findfont 140 scalefont setfont
1.000 UL
LTb
LCb setrgbcolor
7970 448 M
63 0 V
6114 0 R
-63 0 V
stroke
7886 448 M
[ [(Helvetica) 140.0 0.0 true true 0 ( 0.95)]
] -46.7 MRshow
1.000 UL
LTb
LCb setrgbcolor
7970 1352 M
63 0 V
6114 0 R
-63 0 V
stroke
7886 1352 M
[ [(Helvetica) 140.0 0.0 true true 0 ( 1)]
] -46.7 MRshow
1.000 UL
LTb
LCb setrgbcolor
7970 2257 M
63 0 V
6114 0 R
-63 0 V
stroke
7886 2257 M
[ [(Helvetica) 140.0 0.0 true true 0 ( 1.05)]
] -46.7 MRshow
1.000 UL
LTb
LCb setrgbcolor
7970 3161 M
63 0 V
6114 0 R
-63 0 V
stroke
7886 3161 M
[ [(Helvetica) 140.0 0.0 true true 0 ( 1.1)]
] -46.7 MRshow
1.000 UL
LTb
LCb setrgbcolor
7970 4066 M
63 0 V
6114 0 R
-63 0 V
stroke
7886 4066 M
[ [(Helvetica) 140.0 0.0 true true 0 ( 1.15)]
] -46.7 MRshow
1.000 UL
LTb
LCb setrgbcolor
7970 4970 M
63 0 V
6114 0 R
-63 0 V
stroke
7886 4970 M
[ [(Helvetica) 140.0 0.0 true true 0 ( 1.2)]
] -46.7 MRshow
1.000 UL
LTb
LCb setrgbcolor
7970 5875 M
63 0 V
6114 0 R
-63 0 V
stroke
7886 5875 M
[ [(Helvetica) 140.0 0.0 true true 0 ( 1.25)]
] -46.7 MRshow
1.000 UL
LTb
LCb setrgbcolor
7970 6779 M
63 0 V
6114 0 R
-63 0 V
stroke
7886 6779 M
[ [(Helvetica) 140.0 0.0 true true 0 ( 1.3)]
] -46.7 MRshow
1.000 UL
LTb
LCb setrgbcolor
7970 448 M
0 63 V
0 6268 R
0 -63 V
stroke
7970 308 M
[ [(Helvetica) 140.0 0.0 true true 0 ( 0)]
] -46.7 MCshow
1.000 UL
LTb
LCb setrgbcolor
8588 448 M
0 63 V
0 6268 R
0 -63 V
stroke
8588 308 M
[ [(Helvetica) 140.0 0.0 true true 0 ( 5000)]
] -46.7 MCshow
1.000 UL
LTb
LCb setrgbcolor
9205 448 M
0 63 V
0 6268 R
0 -63 V
stroke
9205 308 M
[ [(Helvetica) 140.0 0.0 true true 0 ( 10000)]
] -46.7 MCshow
1.000 UL
LTb
LCb setrgbcolor
9823 448 M
0 63 V
0 6268 R
0 -63 V
stroke
9823 308 M
[ [(Helvetica) 140.0 0.0 true true 0 ( 15000)]
] -46.7 MCshow
1.000 UL
LTb
LCb setrgbcolor
10441 448 M
0 63 V
0 6268 R
0 -63 V
stroke
10441 308 M
[ [(Helvetica) 140.0 0.0 true true 0 ( 20000)]
] -46.7 MCshow
1.000 UL
LTb
LCb setrgbcolor
11059 448 M
0 63 V
0 6268 R
0 -63 V
stroke
11059 308 M
[ [(Helvetica) 140.0 0.0 true true 0 ( 25000)]
] -46.7 MCshow
1.000 UL
LTb
LCb setrgbcolor
11676 448 M
0 63 V
0 6268 R
0 -63 V
stroke
11676 308 M
[ [(Helvetica) 140.0 0.0 true true 0 ( 30000)]
] -46.7 MCshow
1.000 UL
LTb
LCb setrgbcolor
12294 448 M
0 63 V
0 6268 R
0 -63 V
stroke
12294 308 M
[ [(Helvetica) 140.0 0.0 true true 0 ( 35000)]
] -46.7 MCshow
1.000 UL
LTb
LCb setrgbcolor
12912 448 M
0 63 V
0 6268 R
0 -63 V
stroke
12912 308 M
[ [(Helvetica) 140.0 0.0 true true 0 ( 40000)]
] -46.7 MCshow
1.000 UL
LTb
LCb setrgbcolor
13529 448 M
0 63 V
0 6268 R
0 -63 V
stroke
13529 308 M
[ [(Helvetica) 140.0 0.0 true true 0 ( 45000)]
] -46.7 MCshow
1.000 UL
LTb
LCb setrgbcolor
14147 448 M
0 63 V
0 6268 R
0 -63 V
stroke
14147 308 M
[ [(Helvetica) 140.0 0.0 true true 0 ( 50000)]
] -46.7 MCshow
1.000 UL
LTb
LCb setrgbcolor
1.000 UL
LTb
LCb setrgbcolor
7970 6779 N
0 -6331 V
6177 0 V
0 6331 V
-6177 0 V
Z stroke
LCb setrgbcolor
7312 3613 M
currentpoint gsave translate -270 rotate 0 0 moveto
[ [(Helvetica) 140.0 0.0 true true 0 (Pi estimation divided by pi)]
] -46.7 MCshow
grestore
LTb
LCb setrgbcolor
11058 98 M
[ [(Helvetica) 140.0 0.0 true true 0 (Iterations)]
] -46.7 MCshow
LTb
11058 6989 M
[ [(Helvetica) 140.0 0.0 true true 0 (pi estimate normalised by actual pi)]
] -46.7 MCshow
1.000 UP
1.000 UL
LTb
LCb setrgbcolor
% Begin plot #1
1.000 UP
1.000 UL
LT0
LC0 setrgbcolor
/Helvetica findfont 140 scalefont setfont
LCb setrgbcolor
13496 6646 M
("out_div_pi.dat") Rshow
LT0
13580 6646 M
399 0 V
7970 6295 M
62 -5103 V
62 -281 V
61 198 V
62 179 V
62 62 V
62 -66 V
62 18 V
61 -78 V
62 97 V
62 23 V
62 6 V
61 -29 V
62 25 V
62 -25 V
62 -22 V
61 -1 V
62 9 V
62 -4 V
62 -19 V
62 28 V
61 4 V
62 24 V
62 -11 V
62 28 V
61 13 V
62 -9 V
62 -17 V
62 11 V
61 -19 V
62 -12 V
62 16 V
62 6 V
62 5 V
61 7 V
62 2 V
62 -14 V
62 13 V
61 -8 V
62 -6 V
62 -13 V
62 -14 V
61 -17 V
62 -2 V
62 -14 V
62 -11 V
62 0 V
61 8 V
62 3 V
62 -17 V
62 5 V
61 1 V
62 7 V
62 6 V
62 -12 V
61 10 V
62 19 V
62 -12 V
62 -1 V
62 7 V
61 -1 V
62 2 V
62 -5 V
62 -2 V
61 -4 V
62 2 V
62 -2 V
62 -2 V
61 1 V
62 -5 V
62 5 V
62 -9 V
62 10 V
61 1 V
62 5 V
62 -2 V
62 4 V
61 -13 V
62 9 V
62 4 V
62 -3 V
61 -1 V
62 7 V
62 2 V
62 -4 V
62 -2 V
61 -4 V
62 6 V
62 -1 V
62 5 V
61 -6 V
62 2 V
62 4 V
62 -1 V
62 2 V
61 -2 V
62 -7 V
62 3 V
62 -4 V
61 1 V
7970 6295 Pls
8032 1192 Pls
8094 911 Pls
8155 1109 Pls
8217 1288 Pls
8279 1350 Pls
8341 1284 Pls
8403 1302 Pls
8464 1224 Pls
8526 1321 Pls
8588 1344 Pls
8650 1350 Pls
8711 1321 Pls
8773 1346 Pls
8835 1321 Pls
8897 1299 Pls
8958 1298 Pls
9020 1307 Pls
9082 1303 Pls
9144 1284 Pls
9206 1312 Pls
9267 1316 Pls
9329 1340 Pls
9391 1329 Pls
9453 1357 Pls
9514 1370 Pls
9576 1361 Pls
9638 1344 Pls
9700 1355 Pls
9761 1336 Pls
9823 1324 Pls
9885 1340 Pls
9947 1346 Pls
10009 1351 Pls
10070 1358 Pls
10132 1360 Pls
10194 1346 Pls
10256 1359 Pls
10317 1351 Pls
10379 1345 Pls
10441 1332 Pls
10503 1318 Pls
10564 1301 Pls
10626 1299 Pls
10688 1285 Pls
10750 1274 Pls
10812 1274 Pls
10873 1282 Pls
10935 1285 Pls
10997 1268 Pls
11059 1273 Pls
11120 1274 Pls
11182 1281 Pls
11244 1287 Pls
11306 1275 Pls
11367 1285 Pls
11429 1304 Pls
11491 1292 Pls
11553 1291 Pls
11615 1298 Pls
11676 1297 Pls
11738 1299 Pls
11800 1294 Pls
11862 1292 Pls
11923 1288 Pls
11985 1290 Pls
12047 1288 Pls
12109 1286 Pls
12170 1287 Pls
12232 1282 Pls
12294 1287 Pls
12356 1278 Pls
12418 1288 Pls
12479 1289 Pls
12541 1294 Pls
12603 1292 Pls
12665 1296 Pls
12726 1283 Pls
12788 1292 Pls
12850 1296 Pls
12912 1293 Pls
12973 1292 Pls
13035 1299 Pls
13097 1301 Pls
13159 1297 Pls
13221 1295 Pls
13282 1291 Pls
13344 1297 Pls
13406 1296 Pls
13468 1301 Pls
13529 1295 Pls
13591 1297 Pls
13653 1301 Pls
13715 1300 Pls
13777 1302 Pls
13838 1300 Pls
13900 1293 Pls
13962 1296 Pls
14024 1292 Pls
14085 1293 Pls
13779 6646 Pls
% End plot #1
1.000 UL
LTb
LCb setrgbcolor
7970 6779 N
0 -6331 V
6177 0 V
0 6331 V
-6177 0 V
Z stroke
1.000 UP
1.000 UL
LTb
LCb setrgbcolor
stroke
grestore
end
showpage
%%Trailer
%%DocumentFonts: Helvetica
